{
    "project": {
        "name": "The ACME API",
        "description": "The official documentation for the ACME APIs",
        "version": "0.0.1",
        "url": "http://wtc-web.com/"
    },
    "files": {
        "src\\js\\modules\\ok-game\\GameDataAccess.js": {
            "name": "src\\js\\modules\\ok-game\\GameDataAccess.js",
            "modules": {},
            "classes": {
                "GameDataAccess": 1
            },
            "fors": {},
            "namespaces": {}
        },
        "src\\js\\modules\\ok-game\\GameDetails.js": {
            "name": "src\\js\\modules\\ok-game\\GameDetails.js",
            "modules": {},
            "classes": {
                "GameDetails": 1
            },
            "fors": {},
            "namespaces": {}
        },
        "src\\js\\modules\\ok-game\\GameList.js": {
            "name": "src\\js\\modules\\ok-game\\GameList.js",
            "modules": {},
            "classes": {
                "GameList": 1
            },
            "fors": {},
            "namespaces": {}
        },
        "src\\js\\modules\\ok-game\\ok-game-info.js": {
            "name": "src\\js\\modules\\ok-game\\ok-game-info.js",
            "modules": {
                "OKGame": 1
            },
            "classes": {},
            "fors": {},
            "namespaces": {}
        }
    },
    "modules": {
        "OKGame": {
            "name": "OKGame",
            "submodules": {},
            "elements": {},
            "classes": {
                "GameDataAccess": 1,
                "GameDetails": 1,
                "GameList": 1
            },
            "fors": {},
            "namespaces": {},
            "tag": "module",
            "file": "src\\js\\modules\\ok-game\\GameList.js",
            "line": 3,
            "description": "This is the module that set everything up.\nRequires OKGame.GameDataAccess, OKGame.GameDetails, and OKGame.GameList",
            "params": [
                {
                    "name": "id",
                    "description": "The name of the container",
                    "type": "String"
                }
            ]
        }
    },
    "classes": {
        "GameDataAccess": {
            "name": "GameDataAccess",
            "shortname": "GameDataAccess",
            "classitems": [],
            "plugins": [],
            "extensions": [],
            "plugin_for": [],
            "extension_for": [],
            "module": "OKGame",
            "file": "src\\js\\modules\\ok-game\\GameDataAccess.js",
            "line": 7,
            "description": "Class that uses ajax calls to get and send game information"
        },
        "GameDetails": {
            "name": "GameDetails",
            "shortname": "GameDetails",
            "classitems": [],
            "plugins": [],
            "extensions": [],
            "plugin_for": [],
            "extension_for": [],
            "module": "OKGame",
            "file": "src\\js\\modules\\ok-game\\GameDetails.js",
            "line": 3,
            "description": "This class fills the details section",
            "params": [
                {
                    "name": "options",
                    "description": "",
                    "type": "Object",
                    "props": [
                        {
                            "name": "target",
                            "description": "the container for this"
                        },
                        {
                            "name": "systems",
                            "description": "array of system objects",
                            "type": "System_id: database id number, name: system name"
                        },
                        {
                            "name": "onclick",
                            "description": "function to run when save is hit"
                        }
                    ]
                }
            ],
            "is_constructor": 1
        },
        "GameList": {
            "name": "GameList",
            "shortname": "GameList",
            "classitems": [],
            "plugins": [],
            "extensions": [],
            "plugin_for": [],
            "extension_for": [],
            "module": "OKGame",
            "file": "src\\js\\modules\\ok-game\\GameList.js",
            "line": 3,
            "description": "Fills a div with a list of all games",
            "params": [
                {
                    "name": "options",
                    "description": "",
                    "props": [
                        {
                            "name": "target",
                            "description": "container for list"
                        },
                        {
                            "name": "games",
                            "description": "array of game objects to fill the list",
                            "type": "Array"
                        },
                        {
                            "name": "onclick",
                            "description": "function to call when edit button is clicked",
                            "type": "Function"
                        }
                    ]
                }
            ],
            "is_constructor": 1
        }
    },
    "elements": {},
    "classitems": [
        {
            "file": "src\\js\\modules\\ok-game\\GameDataAccess.js",
            "line": 20,
            "description": "gets an array of all games",
            "params": [
                {
                    "name": "callback",
                    "description": "",
                    "type": "Function"
                }
            ],
            "return": {
                "description": "games array of game objects",
                "type": "Array"
            },
            "itemtype": "method",
            "name": "getAllGames",
            "class": "GameDataAccess"
        },
        {
            "file": "src\\js\\modules\\ok-game\\GameDataAccess.js",
            "line": 35,
            "description": "gets a specific game",
            "params": [
                {
                    "name": "id",
                    "description": "",
                    "type": "Int"
                },
                {
                    "name": "callback",
                    "description": "",
                    "type": "Function"
                }
            ],
            "itemtype": "method",
            "name": "getGameById",
            "class": "GameDataAccess"
        },
        {
            "file": "src\\js\\modules\\ok-game\\GameDataAccess.js",
            "line": 50,
            "description": "gets an array of all games",
            "params": [
                {
                    "name": "game",
                    "description": "new game to add",
                    "type": "Object"
                },
                {
                    "name": "callback",
                    "description": "",
                    "type": "Function"
                }
            ],
            "itemtype": "method",
            "name": "addGame",
            "class": "GameDataAccess"
        },
        {
            "file": "src\\js\\modules\\ok-game\\GameDataAccess.js",
            "line": 67,
            "description": "gets an array of all games",
            "params": [
                {
                    "name": "game",
                    "description": "game object with all details; will replace everything",
                    "type": "Object"
                },
                {
                    "name": "callback",
                    "description": "",
                    "type": "Function"
                }
            ],
            "itemtype": "method",
            "name": "replaceGame",
            "class": "GameDataAccess"
        },
        {
            "file": "src\\js\\modules\\ok-game\\GameDataAccess.js",
            "line": 84,
            "description": "gets an array of all systems",
            "params": [
                {
                    "name": "callback",
                    "description": "",
                    "type": "Function"
                }
            ],
            "return": {
                "description": "systems array of system objects",
                "type": "Array"
            },
            "itemtype": "method",
            "name": "getAllSystems",
            "class": "GameDataAccess"
        },
        {
            "file": "src\\js\\modules\\ok-game\\GameDetails.js",
            "line": 78,
            "description": "Sets the game shown",
            "params": [
                {
                    "name": "game",
                    "description": "if null, will reset the info",
                    "type": "Object",
                    "props": [
                        {
                            "name": "id",
                            "description": "",
                            "type": "Int"
                        },
                        {
                            "name": "name",
                            "description": "",
                            "type": "String"
                        },
                        {
                            "name": "common_name",
                            "description": "",
                            "type": "String"
                        },
                        {
                            "name": "desc",
                            "description": "",
                            "type": "String"
                        },
                        {
                            "name": "active",
                            "description": "",
                            "type": "Enum \"YES\", \"NO\""
                        },
                        {
                            "name": "game_system",
                            "description": "",
                            "type": "Int"
                        }
                    ]
                }
            ],
            "optional": 1,
            "itemtype": "method",
            "name": "setCurrentGame",
            "class": "GameDetails"
        },
        {
            "file": "src\\js\\modules\\ok-game\\GameDetails.js",
            "line": 106,
            "description": "clears out the game infor",
            "itemtype": "method",
            "name": "resetCurrentGame",
            "class": "GameDetails"
        },
        {
            "file": "src\\js\\modules\\ok-game\\GameDetails.js",
            "line": 120,
            "description": "returns a game object with the properties in the details area",
            "return": {
                "description": "game",
                "type": "Object"
            },
            "itemtype": "method",
            "name": "getCurrentGame",
            "class": "GameDetails"
        },
        {
            "file": "src\\js\\modules\\ok-game\\GameList.js",
            "line": 29,
            "description": "Creates/recreates the list",
            "params": [
                {
                    "name": "options",
                    "description": "",
                    "type": "Object",
                    "props": [
                        {
                            "name": "games",
                            "description": "changes the games array",
                            "type": "Array"
                        },
                        {
                            "name": "onclick",
                            "description": "changes the onclick function",
                            "type": "Function"
                        }
                    ]
                }
            ],
            "optional": 1,
            "itemtype": "method",
            "name": "makeList",
            "class": "GameList"
        }
    ],
    "warnings": []
}